block  air
	name = Air

block  stone
	name = Stone
	image = /images/stone_alone.png
	solid
	textures = /images/Stone.png
	breakable 
		hardness = 1 
		health = 1000,5
		
block  test
	name = Test
	image = "/images/test.png
	multi line"
	solid
	multiple
		a
			b = "a"
			c = "b"
			d = "c"
		a
			b
			c
			d
	
// commen
other  t/e/st
other obj  test 2